{
    "url": "POST https://auth.airlines-manager.com/oauth/v2/token?version=30610",
    "params": {
        "refresh_token": "$refreshToken",
        "client_secret": "3bp2344u3b40k08kcwws4c0cw0gsssksoowckgccgggsgo0gsg",
        "grant_type": "refresh_token",
        "device_id": "7849753cef850312aaee94c1c415a8ae",
        "locale": "en"
    },
    "access_token": "OTVlZTQ4MWVlM2FmZGMzZTc5M2YxMTQwZjA3MjhlMDdkYTUxNmFmOTUzYWY4Njk5NmUwNWZjNGVkYTNkYzlhMg",
    "airlineId": 4187282,
    "expires_in": 3600,
    "gameServer": "www.airlines-manager.com",
    "inGameDateTime": {
        "date": "2022-03-26 04:51:20.000000",
        "timezone": "UTC",
        "timezone_type": 3
    },
    "irlDateTime": {
        "date": "2022-03-26 04:51:20.000000",
        "timezone": "UTC",
        "timezone_type": 3
    },
    "isLockout": false,
    "locale": "en",
    "multiplier": 1,
    "premium": {
        "limitDate": {
            "date": "2022-03-26 04:51:20.000000",
            "timezone": "UTC",
            "timezone_type": 3
        },
        "status": 0
    },
    "refresh_token": "NWYxMDM0MGZhNWQ4OGNlOWUwMDdiZmY4ZDhjMmMzYTNiZDljODM3NmUxYTQwZTcwNzhmZjE5MmRkMDQ2MTY4Nw",
    "rules": {
        "maintenance": {
            "maxMark": 5,
            "minMark": 1
        }
    },
    "scope": "user",
    "sessionId": "PHPSESSID=",
    "token_type": "bearer",
    "version": 30610
}
