{
    "url": "GET https://tycoon-api.airlines-manager.com/api/$airlineId/line/open/$routeId/11?access_token=$accessToken",
    "inGameDateTime": {
        "date": "2035-10-28 10:55:27.000000",
        "timezone": "UTC",
        "timezone_type": 3
    },
    "irlDateTime": {
        "date": "2022-07-14 04:59:21.000000",
        "timezone": "UTC",
        "timezone_type": 3
    },
    "list": [
        {
            "activity": 1,
            "audit": {
                "countFree": 0,
                "price": 4060650,
                "priceWFB": 4060650
            },
            "availableAt": {
                "date": "2000-01-01 00:00:00.000000",
                "timezone": "UTC",
                "timezone_type": 3
            },
            "category": 6,
            "city": "Villa Mercedes",
            "distance": 1211,
            "iata": "VME",
            "id": 2618,
            "name": "Villa Reynold Airport",
            "price": {
                "final": 77525490,
                "raw": 77525490,
                "subvention": 0
            },
            "restrictPurchaseUntil": {
                "date": "2000-01-01 00:00:00.000000",
                "timezone": "UTC",
                "timezone_type": 3
            },
            "tax": 3915
        },
        {
            "activity": 2,
            "audit": {
                "countFree": 0,
                "price": 4003242,
                "priceWFB": 4003242
            },
            "availableAt": {
                "date": "2000-01-01 00:00:00.000000",
                "timezone": "UTC",
                "timezone_type": 3
            },
            "category": 6,
            "city": "Santiago Del Estero",
            "distance": 731,
            "iata": "SDE",
            "id": 1940,
            "name": "Vicecomodoro Aragonez Airport",
            "price": {
                "final": 80479652,
                "raw": 80479652,
                "subvention": 0
            },
            "restrictPurchaseUntil": {
                "date": "2000-01-01 00:00:00.000000",
                "timezone": "UTC",
                "timezone_type": 3
            },
            "tax": 3759
        },
        {
            "activity": 2,
            "audit": {
                "countFree": 0,
                "price": 4408868,
                "priceWFB": 4408868
            },
            "availableAt": {
                "date": "2000-01-01 00:00:00.000000",
                "timezone": "UTC",
                "timezone_type": 3
            },
            "category": 8,
            "city": "Tucumán",
            "distance": 778,
            "iata": "TUC",
            "id": 1184,
            "name": "Teniente Benjamín Matienzo Airport",
            "price": {
                "final": 88871051,
                "raw": 88871051,
                "subvention": 0
            },
            "restrictPurchaseUntil": {
                "date": "2000-01-01 00:00:00.000000",
                "timezone": "UTC",
                "timezone_type": 3
            },
            "tax": 4054
        },
        {
            "activity": 2,
            "audit": {
                "countFree": 0,
                "price": 5893369,
                "priceWFB": 5893369
            },
            "availableAt": {
                "date": "2000-01-01 00:00:00.000000",
                "timezone": "UTC",
                "timezone_type": 3
            },
            "category": 6,
            "city": "San Carlos de Bariloche",
            "distance": 2171,
            "iata": "BRC",
            "id": 823,
            "name": "Teniente Luis Candelaria Airport",
            "price": {
                "final": 108898035,
                "raw": 108898035,
                "subvention": 0
            },
            "restrictPurchaseUntil": {
                "date": "2000-01-01 00:00:00.000000",
                "timezone": "UTC",
                "timezone_type": 3
            },
            "tax": 4212
        },
        {
            "activity": 2,
            "audit": {
                "countFree": 0,
                "price": 4536210,
                "priceWFB": 4536210
            },
            "availableAt": {
                "date": "2000-01-01 00:00:00.000000",
                "timezone": "UTC",
                "timezone_type": 3
            },
            "category": 6,
            "city": "San Rafael",
            "distance": 1475,
            "iata": "AFA",
            "id": 2232,
            "name": "Santiago Germano Airport",
            "price": {
                "final": 85535815,
                "raw": 85535815,
                "subvention": 0
            },
            "restrictPurchaseUntil": {
                "date": "2000-01-01 00:00:00.000000",
                "timezone": "UTC",
                "timezone_type": 3
            },
            "tax": 4008
        },
        {
            "activity": 1,
            "audit": {
                "countFree": 0,
                "price": 4370214,
                "priceWFB": 4370214
            },
            "availableAt": {
                "date": "2000-01-01 00:00:00.000000",
                "timezone": "UTC",
                "timezone_type": 3
            },
            "category": 6,
            "city": "Santa Rosa",
            "distance": 1416,
            "iata": "RSA",
            "id": 2515,
            "name": "Santa Rosa Airport",
            "price": {
                "final": 82449705,
                "raw": 82449705,
                "subvention": 0
            },
            "restrictPurchaseUntil": {
                "date": "2000-01-01 00:00:00.000000",
                "timezone": "UTC",
                "timezone_type": 3
            },
            "tax": 3924
        },
        {
            "activity": 2,
            "audit": {
                "countFree": 0,
                "price": 4514514,
                "priceWFB": 4514514
            },
            "availableAt": {
                "date": "2000-01-01 00:00:00.000000",
                "timezone": "UTC",
                "timezone_type": 3
            },
            "category": 6,
            "city": "San Juan",
            "distance": 1276,
            "iata": "UAQ",
            "id": 1827,
            "name": "San Juan Airport",
            "price": {
                "final": 86806225,
                "raw": 86806225,
                "subvention": 0
            },
            "restrictPurchaseUntil": {
                "date": "2000-01-01 00:00:00.000000",
                "timezone": "UTC",
                "timezone_type": 3
            },
            "tax": 3970
        },
        {
            "activity": 2,
            "audit": {
                "countFree": 0,
                "price": 3721351,
                "priceWFB": 3721351
            },
            "availableAt": {
                "date": "2000-01-01 00:00:00.000000",
                "timezone": "UTC",
                "timezone_type": 3
            },
            "category": 8,
            "city": "Resistencia",
            "distance": 289,
            "iata": "RES",
            "id": 1670,
            "name": "Resistencia Airport",
            "price": {
                "final": 78229744,
                "raw": 78229744,
                "subvention": 0
            },
            "restrictPurchaseUntil": {
                "date": "2000-01-01 00:00:00.000000",
                "timezone": "UTC",
                "timezone_type": 3
            },
            "tax": 3788
        },
        {
            "activity": 2,
            "audit": {
                "countFree": 0,
                "price": 5535971,
                "priceWFB": 5535971
            },
            "availableAt": {
                "date": "2000-01-01 00:00:00.000000",
                "timezone": "UTC",
                "timezone_type": 3
            },
            "category": 7,
            "city": "Neuquén",
            "distance": 1821,
            "iata": "NQN",
            "id": 873,
            "name": "Presidente Perón Airport",
            "price": {
                "final": 104204513,
                "raw": 104204513,
                "subvention": 0
            },
            "restrictPurchaseUntil": {
                "date": "2000-01-01 00:00:00.000000",
                "timezone": "UTC",
                "timezone_type": 3
            },
            "tax": 4274
        },
        {
            "activity": 2,
            "audit": {
                "countFree": 0,
                "price": 4559670,
                "priceWFB": 4559670
            },
            "availableAt": {
                "date": "2000-01-01 00:00:00.000000",
                "timezone": "UTC",
                "timezone_type": 3
            },
            "category": 8,
            "city": "Salta",
            "distance": 803,
            "iata": "SLA",
            "id": 1002,
            "name": "Martín Miguel de Güemes Airport",
            "price": {
                "final": 91924924,
                "raw": 91924924,
                "subvention": 0
            },
            "restrictPurchaseUntil": {
                "date": "2000-01-01 00:00:00.000000",
                "timezone": "UTC",
                "timezone_type": 3
            },
            "tax": 4135
        },
        {
            "activity": 2,
            "audit": {
                "countFree": 0,
                "price": 4722276,
                "priceWFB": 4722276
            },
            "availableAt": {
                "date": "2000-01-01 00:00:00.000000",
                "timezone": "UTC",
                "timezone_type": 3
            },
            "category": 5,
            "city": "Mar Del Plata",
            "distance": 1411,
            "iata": "MDQ",
            "id": 1649,
            "name": "Mar del Plata Airport",
            "price": {
                "final": 90133699,
                "raw": 90133699,
                "subvention": 0
            },
            "restrictPurchaseUntil": {
                "date": "2000-01-01 00:00:00.000000",
                "timezone": "UTC",
                "timezone_type": 3
            },
            "tax": 3883
        },
        {
            "activity": 2,
            "audit": {
                "countFree": 0,
                "price": 6840496,
                "priceWFB": 6840496
            },
            "availableAt": {
                "date": "2000-01-01 00:00:00.000000",
                "timezone": "UTC",
                "timezone_type": 3
            },
            "category": 8,
            "city": "Ushuaia",
            "distance": 3409,
            "iata": "USH",
            "id": 959,
            "name": "Malvinas Argentinas Airport",
            "price": {
                "final": 118619512,
                "raw": 118619512,
                "subvention": 0
            },
            "restrictPurchaseUntil": {
                "date": "2000-01-01 00:00:00.000000",
                "timezone": "UTC",
                "timezone_type": 3
            },
            "tax": 5069
        },
        {
            "activity": 2,
            "audit": {
                "countFree": 0,
                "price": 3660680,
                "priceWFB": 3660680
            },
            "availableAt": {
                "date": "2000-01-01 00:00:00.000000",
                "timezone": "UTC",
                "timezone_type": 3
            },
            "category": 6,
            "city": "Posadas",
            "distance": 284,
            "iata": "PSS",
            "id": 1840,
            "name": "Libertador General Jose de San Martin Airport",
            "price": {
                "final": 76956832,
                "raw": 76956832,
                "subvention": 0
            },
            "restrictPurchaseUntil": {
                "date": "2000-01-01 00:00:00.000000",
                "timezone": "UTC",
                "timezone_type": 3
            },
            "tax": 3519
        },
        {
            "activity": 2,
            "audit": {
                "countFree": 0,
                "price": 5747324,
                "priceWFB": 5747324
            },
            "availableAt": {
                "date": "2000-01-01 00:00:00.000000",
                "timezone": "UTC",
                "timezone_type": 3
            },
            "category": 5,
            "city": "Buenos Aires",
            "distance": 1040,
            "iata": "AEP",
            "id": 303,
            "name": "Jorge Newbery Aeroparque Metropolitano Airport",
            "price": {
                "final": 115624914,
                "raw": 115624914,
                "subvention": 0
            },
            "restrictPurchaseUntil": {
                "date": "2000-01-01 00:00:00.000000",
                "timezone": "UTC",
                "timezone_type": 3
            },
            "tax": 4051
        },
        {
            "activity": 2,
            "audit": {
                "countFree": 0,
                "price": 4268360,
                "priceWFB": 4268360
            },
            "availableAt": {
                "date": "2000-01-01 00:00:00.000000",
                "timezone": "UTC",
                "timezone_type": 3
            },
            "category": 8,
            "city": "Rosario",
            "distance": 909,
            "iata": "ROS",
            "id": 1642,
            "name": "Islas Malvinas Airport",
            "price": {
                "final": 84675599,
                "raw": 84675599,
                "subvention": 0
            },
            "restrictPurchaseUntil": {
                "date": "2000-01-01 00:00:00.000000",
                "timezone": "UTC",
                "timezone_type": 3
            },
            "tax": 4140
        },
        {
            "activity": 2,
            "audit": {
                "countFree": 0,
                "price": 6329838,
                "priceWFB": 6329838
            },
            "availableAt": {
                "date": "2000-01-01 00:00:00.000000",
                "timezone": "UTC",
                "timezone_type": 3
            },
            "category": 4,
            "city": "Rio Grande",
            "distance": 3285,
            "iata": "RGA",
            "id": 1703,
            "name": "Hermes Quijada Airport",
            "price": {
                "final": 108622535,
                "raw": 108622535,
                "subvention": 0
            },
            "restrictPurchaseUntil": {
                "date": "2000-01-01 00:00:00.000000",
                "timezone": "UTC",
                "timezone_type": 3
            },
            "tax": 4368
        },
        {
            "activity": 1,
            "audit": {
                "countFree": 0,
                "price": 3891215,
                "priceWFB": 3891215
            },
            "availableAt": {
                "date": "2000-01-01 00:00:00.000000",
                "timezone": "UTC",
                "timezone_type": 3
            },
            "category": 5,
            "city": "Paraná",
            "distance": 784,
            "iata": "PRA",
            "id": 2413,
            "name": "Gral. Justo José de Urquiza Airport",
            "price": {
                "final": 77584777,
                "raw": 77584777,
                "subvention": 0
            },
            "restrictPurchaseUntil": {
                "date": "2000-01-01 00:00:00.000000",
                "timezone": "UTC",
                "timezone_type": 3
            },
            "tax": 3601
        },
        {
            "activity": 1,
            "audit": {
                "countFree": 0,
                "price": 4139907,
                "priceWFB": 4139907
            },
            "availableAt": {
                "date": "2000-01-01 00:00:00.000000",
                "timezone": "UTC",
                "timezone_type": 3
            },
            "category": 6,
            "city": "General Pico",
            "distance": 1307,
            "iata": "GPO",
            "id": 2619,
            "name": "General Pico Airport",
            "price": {
                "final": 78405490,
                "raw": 78405490,
                "subvention": 0
            },
            "restrictPurchaseUntil": {
                "date": "2000-01-01 00:00:00.000000",
                "timezone": "UTC",
                "timezone_type": 3
            },
            "tax": 3949
        },
        {
            "activity": 2,
            "audit": {
                "countFree": 0,
                "price": 5808775,
                "priceWFB": 5808775
            },
            "availableAt": {
                "date": "2000-01-01 00:00:00.000000",
                "timezone": "UTC",
                "timezone_type": 3
            },
            "category": 7,
            "city": "Comodoro Rivadavia",
            "distance": 2452,
            "iata": "CRD",
            "id": 1251,
            "name": "General Enrique Mosconi Airport",
            "price": {
                "final": 104603488,
                "raw": 104603488,
                "subvention": 0
            },
            "restrictPurchaseUntil": {
                "date": "2000-01-01 00:00:00.000000",
                "timezone": "UTC",
                "timezone_type": 3
            },
            "tax": 4579
        },
        {
            "activity": 2,
            "audit": {
                "countFree": 0,
                "price": 5130519,
                "priceWFB": 5130519
            },
            "availableAt": {
                "date": "2000-01-01 00:00:00.000000",
                "timezone": "UTC",
                "timezone_type": 3
            },
            "category": 6,
            "city": "Puerto Madryn",
            "distance": 2068,
            "iata": "PMY",
            "id": 2007,
            "name": "El Tehuelche Airport",
            "price": {
                "final": 93244392,
                "raw": 93244392,
                "subvention": 0
            },
            "restrictPurchaseUntil": {
                "date": "2000-01-01 00:00:00.000000",
                "timezone": "UTC",
                "timezone_type": 3
            },
            "tax": 4269
        },
        {
            "activity": 2,
            "audit": {
                "countFree": 0,
                "price": 3676971,
                "priceWFB": 3676971
            },
            "availableAt": {
                "date": "2000-01-01 00:00:00.000000",
                "timezone": "UTC",
                "timezone_type": 3
            },
            "category": 5,
            "city": "Corrientes",
            "distance": 274,
            "iata": "CNQ",
            "id": 1809,
            "name": "Dr. Fernando Piragine Niveyro Airport",
            "price": {
                "final": 77397867,
                "raw": 77397867,
                "subvention": 0
            },
            "restrictPurchaseUntil": {
                "date": "2000-01-01 00:00:00.000000",
                "timezone": "UTC",
                "timezone_type": 3
            },
            "tax": 3435
        },
        {
            "activity": 1,
            "audit": {
                "countFree": 0,
                "price": 3480876,
                "priceWFB": 3480876
            },
            "availableAt": {
                "date": "2000-01-01 00:00:00.000000",
                "timezone": "UTC",
                "timezone_type": 3
            },
            "category": 8,
            "city": "Reconquista",
            "distance": 490,
            "iata": "RCQ",
            "id": 2585,
            "name": "Daniel Jurkic Airport",
            "price": {
                "final": 71252343,
                "raw": 71252343,
                "subvention": 0
            },
            "restrictPurchaseUntil": {
                "date": "2000-01-01 00:00:00.000000",
                "timezone": "UTC",
                "timezone_type": 3
            },
            "tax": 3871
        },
        {
            "activity": 1,
            "audit": {
                "countFree": 0,
                "price": 4555153,
                "priceWFB": 4555153
            },
            "availableAt": {
                "date": "2000-01-01 00:00:00.000000",
                "timezone": "UTC",
                "timezone_type": 3
            },
            "category": 7,
            "city": "Malargüe",
            "distance": 1621,
            "iata": "LGS",
            "id": 2490,
            "name": "Comodoro Ricardo Salomón Airport",
            "price": {
                "final": 84669393,
                "raw": 84669393,
                "subvention": 0
            },
            "restrictPurchaseUntil": {
                "date": "2000-01-01 00:00:00.000000",
                "timezone": "UTC",
                "timezone_type": 3
            },
            "tax": 4194
        },
        {
            "activity": 2,
            "audit": {
                "countFree": 0,
                "price": 4817524,
                "priceWFB": 4817524
            },
            "availableAt": {
                "date": "2000-01-01 00:00:00.000000",
                "timezone": "UTC",
                "timezone_type": 3
            },
            "category": 7,
            "city": "Bahía Blanca",
            "distance": 1562,
            "iata": "BHI",
            "id": 1684,
            "name": "Comandante Espora Airport",
            "price": {
                "final": 90879460,
                "raw": 90879460,
                "subvention": 0
            },
            "restrictPurchaseUntil": {
                "date": "2000-01-01 00:00:00.000000",
                "timezone": "UTC",
                "timezone_type": 3
            },
            "tax": 4162
        },
        {
            "activity": 2,
            "audit": {
                "countFree": 0,
                "price": 4202098,
                "priceWFB": 4202098
            },
            "availableAt": {
                "date": "2000-01-01 00:00:00.000000",
                "timezone": "UTC",
                "timezone_type": 3
            },
            "category": 8,
            "city": "La Rioja",
            "distance": 1025,
            "iata": "IRJ",
            "id": 2052,
            "name": "Capitan Vicente Almandos Amonacide Airport",
            "price": {
                "final": 82222616,
                "raw": 82222616,
                "subvention": 0
            },
            "restrictPurchaseUntil": {
                "date": "2000-01-01 00:00:00.000000",
                "timezone": "UTC",
                "timezone_type": 3
            },
            "tax": 4102
        },
        {
            "activity": 2,
            "audit": {
                "countFree": 0,
                "price": 4352380,
                "priceWFB": 4352380
            },
            "availableAt": {
                "date": "2000-01-01 00:00:00.000000",
                "timezone": "UTC",
                "timezone_type": 3
            },
            "category": 8,
            "city": "San Luis",
            "distance": 1237,
            "iata": "LUQ",
            "id": 2145,
            "name": "Brigadier Mayor D Cesar Raul Ojeda Airport",
            "price": {
                "final": 83628939,
                "raw": 83628939,
                "subvention": 0
            },
            "restrictPurchaseUntil": {
                "date": "2000-01-01 00:00:00.000000",
                "timezone": "UTC",
                "timezone_type": 3
            },
            "tax": 4230
        },
        {
            "activity": 2,
            "audit": {
                "countFree": 0,
                "price": 4210354,
                "priceWFB": 4210354
            },
            "availableAt": {
                "date": "2000-01-01 00:00:00.000000",
                "timezone": "UTC",
                "timezone_type": 3
            },
            "category": 10,
            "city": "Iguazu",
            "distance": 310,
            "iata": "IGR",
            "id": 890,
            "name": "Cataratas del Iguazu Airport",
            "price": {
                "final": 88658035,
                "raw": 88658035,
                "subvention": 0
            },
            "restrictPurchaseUntil": {
                "date": "2000-01-01 00:00:00.000000",
                "timezone": "UTC",
                "timezone_type": 3
            },
            "tax": 4119
        },
        {
            "activity": 2,
            "audit": {
                "countFree": 0,
                "price": 4032639,
                "priceWFB": 4032639
            },
            "availableAt": {
                "date": "2000-01-01 00:00:00.000000",
                "timezone": "UTC",
                "timezone_type": 3
            },
            "category": 8,
            "city": "Jujuy",
            "distance": 770,
            "iata": "JUJ",
            "id": 1917,
            "name": "Gobernador Horacio Guzman Airport",
            "price": {
                "final": 80776376,
                "raw": 80776376,
                "subvention": 0
            },
            "restrictPurchaseUntil": {
                "date": "2000-01-01 00:00:00.000000",
                "timezone": "UTC",
                "timezone_type": 3
            },
            "tax": 4061
        },
        {
            "activity": 1,
            "audit": {
                "countFree": 0,
                "price": 3936410,
                "priceWFB": 3936410
            },
            "availableAt": {
                "date": "2000-01-01 00:00:00.000000",
                "timezone": "UTC",
                "timezone_type": 3
            },
            "category": 5,
            "city": "Rio Cuarto",
            "distance": 1090,
            "iata": "RCU",
            "id": 2630,
            "name": "Río Cuarto Airport",
            "price": {
                "final": 75888063,
                "raw": 75888063,
                "subvention": 0
            },
            "restrictPurchaseUntil": {
                "date": "2000-01-01 00:00:00.000000",
                "timezone": "UTC",
                "timezone_type": 3
            },
            "tax": 3785
        },
        {
            "activity": 2,
            "audit": {
                "countFree": 0,
                "price": 5302189,
                "priceWFB": 5302189
            },
            "availableAt": {
                "date": "2000-01-01 00:00:00.000000",
                "timezone": "UTC",
                "timezone_type": 3
            },
            "category": 6,
            "city": "Esquel",
            "distance": 2324,
            "iata": "EQS",
            "id": 2166,
            "name": "Esquel Airport",
            "price": {
                "final": 94729857,
                "raw": 94729857,
                "subvention": 0
            },
            "restrictPurchaseUntil": {
                "date": "2000-01-01 00:00:00.000000",
                "timezone": "UTC",
                "timezone_type": 3
            },
            "tax": 4280
        },
        {
            "activity": 2,
            "audit": {
                "countFree": 0,
                "price": 5645931,
                "priceWFB": 5645931
            },
            "availableAt": {
                "date": "2000-01-01 00:00:00.000000",
                "timezone": "UTC",
                "timezone_type": 3
            },
            "category": 7,
            "city": "Trelew",
            "distance": 2119,
            "iata": "REL",
            "id": 1090,
            "name": "Almirante Marco Andrés Zar Airport",
            "price": {
                "final": 103983285,
                "raw": 103983285,
                "subvention": 0
            },
            "restrictPurchaseUntil": {
                "date": "2000-01-01 00:00:00.000000",
                "timezone": "UTC",
                "timezone_type": 3
            },
            "tax": 4353
        },
        {
            "activity": 2,
            "audit": {
                "countFree": 0,
                "price": 4102783,
                "priceWFB": 4102783
            },
            "availableAt": {
                "date": "2000-01-01 00:00:00.000000",
                "timezone": "UTC",
                "timezone_type": 3
            },
            "category": 8,
            "city": "Catamarca",
            "distance": 897,
            "iata": "CTC",
            "id": 2031,
            "name": "Coronel Felipe Vallese Airport",
            "price": {
                "final": 81187346,
                "raw": 81187346,
                "subvention": 0
            },
            "restrictPurchaseUntil": {
                "date": "2000-01-01 00:00:00.000000",
                "timezone": "UTC",
                "timezone_type": 3
            },
            "tax": 4022
        },
        {
            "activity": 2,
            "audit": {
                "countFree": 0,
                "price": 3494960,
                "priceWFB": 3494960
            },
            "availableAt": {
                "date": "2000-01-01 00:00:00.000000",
                "timezone": "UTC",
                "timezone_type": 3
            },
            "category": 4,
            "city": "Formosa",
            "distance": 129,
            "iata": "FMA",
            "id": 2029,
            "name": "Formosa Airport",
            "price": {
                "final": 74716736,
                "raw": 74716736,
                "subvention": 0
            },
            "restrictPurchaseUntil": {
                "date": "2000-01-01 00:00:00.000000",
                "timezone": "UTC",
                "timezone_type": 3
            },
            "tax": 3234
        },
        {
            "activity": 1,
            "audit": {
                "countFree": 0,
                "price": 4678443,
                "priceWFB": 4678443
            },
            "availableAt": {
                "date": "2000-01-01 00:00:00.000000",
                "timezone": "UTC",
                "timezone_type": 3
            },
            "category": 7,
            "city": "Viedma",
            "distance": 1810,
            "iata": "VDM",
            "id": 2542,
            "name": "Gobernador Castello Airport",
            "price": {
                "final": 85691209,
                "raw": 85691209,
                "subvention": 0
            },
            "restrictPurchaseUntil": {
                "date": "2000-01-01 00:00:00.000000",
                "timezone": "UTC",
                "timezone_type": 3
            },
            "tax": 4206
        },
        {
            "activity": 2,
            "audit": {
                "countFree": 0,
                "price": 5218814,
                "priceWFB": 5218814
            },
            "availableAt": {
                "date": "2000-01-01 00:00:00.000000",
                "timezone": "UTC",
                "timezone_type": 3
            },
            "category": 8,
            "city": "Mendoza",
            "distance": 1382,
            "iata": "MDZ",
            "id": 791,
            "name": "Gobernador Francisco Gabrielli El Plumerillo Airport",
            "price": {
                "final": 101163008,
                "raw": 101163008,
                "subvention": 0
            },
            "restrictPurchaseUntil": {
                "date": "2000-01-01 00:00:00.000000",
                "timezone": "UTC",
                "timezone_type": 3
            },
            "tax": 4265
        },
        {
            "activity": 1,
            "audit": {
                "countFree": 0,
                "price": 5605059,
                "priceWFB": 5605059
            },
            "availableAt": {
                "date": "2000-01-01 00:00:00.000000",
                "timezone": "UTC",
                "timezone_type": 3
            },
            "category": 7,
            "city": "Gobernador Gregores",
            "distance": 2839,
            "iata": "GGS",
            "id": 2494,
            "name": "Gobernador Gregore Airport",
            "price": {
                "final": 96796317,
                "raw": 96796317,
                "subvention": 0
            },
            "restrictPurchaseUntil": {
                "date": "2000-01-01 00:00:00.000000",
                "timezone": "UTC",
                "timezone_type": 3
            },
            "tax": 4601
        },
        {
            "activity": 2,
            "audit": {
                "countFree": 0,
                "price": 4954251,
                "priceWFB": 4954251
            },
            "availableAt": {
                "date": "2000-01-01 00:00:00.000000",
                "timezone": "UTC",
                "timezone_type": 3
            },
            "category": 9,
            "city": "Córdoba",
            "distance": 941,
            "iata": "COR",
            "id": 687,
            "name": "Ingeniero Aeronáutico Ambrosio L.V. Taravella Airport",
            "price": {
                "final": 99280373,
                "raw": 99280373,
                "subvention": 0
            },
            "restrictPurchaseUntil": {
                "date": "2000-01-01 00:00:00.000000",
                "timezone": "UTC",
                "timezone_type": 3
            },
            "tax": 4362
        }
    ],
    "message": "",
    "multiplier": 7,
    "ressources": {
        "amCoins": 96,
        "dollar": 3446643279,
        "researchDollars": 5841761700,
        "travelCards": 53915
    },
    "scriptDateTime": {
        "date": "2022-07-14 04:59:21.000000",
        "timezone": "UTC",
        "timezone_type": 3
    },
    "status": 1
}
